{
  "GET /api": {
    "description": "serves up a json representation of all the available endpoints of the api",
    "exampleResponse": {
      "endpoints": {
        "GET /api": {
          "description": "serves up a json representation of all the available endpoints of the api",
          "exampleResponse": {}
        }
      }
    }
  },
  "POST /users": {
    "description": "writes a new user into the database and returns the new user document",
    "accepts": {
      "name": "Test User",
      "email": "testuser@example.com",
      "password": "test123",
      "username": "testuser123"
    },
    "exampleResponse": {
      "user": {
        "name": "Test User",
        "email": "testuser@example.com",
        "username": "testuser01",
        "password": "test123",
        "topics": [],
        "media": [],
        "saved": [],
        "avatarUrl": "https://cdn.pixabay.com/photo/2016/08/08/09/17/avatar-1577909_960_720.png",
        "_id": "618520d4726db271563146fb",
        "__v": 0
      }
    }
  },
  "PATCH /users/:user_id": {
    "description": "updates a user document and returns the updated version"
  },
  "GET /users": {
    "description": "serves an array of all user documents",
    "exampleResponse": {
      "users": [
        {
          "_id": "618520f72252533eaabeb812",
          "name": "Test User",
          "email": "testuser@example.com",
          "username": "testuser01",
          "password": "test123",
          "topics": ["html", "css", "rust"],
          "media": ["careers", "distance learning"],
          "saved": ["617ffbea8bae4425133b1fe5"],
          "avatarUrl": "https://cdn.pixabay.com/photo/2016/08/08/09/17/avatar-1577909_960_720.png",
          "__v": 0
        }
      ]
    }
  },
  "GET /users/:user_id": {
    "description": "returns a specific user document",
    "exampleResponse": {
      "_id": "618520f72252533eaabeb812",
      "name": "Test User",
      "email": "testuser@example.com",
      "username": "testuser01",
      "password": "test123",
      "topics": ["html", "css", "rust"],
      "media": ["careers", "distance learning"],
      "saved": ["617ffbea8bae4425133b1fe5"],
      "avatarUrl": "https://cdn.pixabay.com/photo/2016/08/08/09/17/avatar-1577909_960_720.png",
      "__v": 0
    }
  },
  "GET /content": {
    "description": "returns an array of content documents",
    "queries": ["limit", "page"],
    "exampleResponse": {
      "content": {
        "docs": [
          {
            "_id": "6182fadbe57af5f7b8cf23c0",
            "title": "Head first JavaScript Programming: A brain-friendly guide",
            "url": "https://www.amazon.com/dp/144934013X",
            "provider": ["Amazon"],
            "type": ["book"],
            "topic": "javascript",
            "desc": "Provides information on scripting Web applications with JavaScript, including objects, functions, and the browser's document object model.",
            "imgUrl": "https://m.media-amazon.com/images/I/51qQTSKL2nL._AC_UY500_FMwebp_QL65_.jpg"
          }
        ],
        "totalDocs": 13,
        "limit": 1,
        "totalPages": 13,
        "page": 1,
        "pagingCounter": 1,
        "hasPrevPage": false,
        "hasNextPage": true,
        "prevPage": null,
        "nextPage": 2
      }
    }
  },
  "GET /content/:content_id": {
    "description": "returns a specific piece of content",
    "exampleResponse": {
      "_id": "6182fadbe57af5f7b8cf23c0",
      "title": "Head first JavaScript Programming: A brain-friendly guide",
      "url": "https://www.amazon.com/dp/144934013X",
      "provider": ["Amazon"],
      "type": ["book"],
      "topic": "javascript",
      "desc": "Provides information on scripting Web applications with JavaScript, including objects, functions, and the browser's document object model.",
      "imgUrl": "https://m.media-amazon.com/images/I/51qQTSKL2nL._AC_UY500_FMwebp_QL65_.jpg"
    }
  },
  "GET /topics": {
    "description": "returns a list of all topic documents",
    "exampleResponse": {
      "topics": [
        {
          "_id": "6183bd5ca0db4d3383dc3647",
          "name": "Git",
          "slug": "git",
          "popularity": 93.43,
          "desc": "Git is software for tracking changes in any set of files, usually used for coordinating work among programmers collaboratively developing source code during software development.",
          "imgUrl": "https://upload.wikimedia.org/wikipedia/commons/thumb/e/e0/Git-logo.svg/1280px-Git-logo.svg.png",
          "__v": 0
        }
      ]
    }
  },
  "GET /topics/:topic_id": {
    "description": "returns a specific topic document",
    "exampleResponse": {
      "_id": "6183bd5ca0db4d3383dc3647",
      "name": "Git",
      "slug": "git",
      "popularity": 93.43,
      "desc": "Git is software for tracking changes in any set of files, usually used for coordinating work among programmers collaboratively developing source code during software development.",
      "imgUrl": "https://upload.wikimedia.org/wikipedia/commons/thumb/e/e0/Git-logo.svg/1280px-Git-logo.svg.png",
      "__v": 0
    }
  }
}
